[{"status":"success","report":{"title":"python","output":"hello","time":0.023,"unit":"second"}},
 {"status":"success","report":{"title":"perl","output":"hello","time":0.002,"unit":"second"}},
 {"status":"success","report":{"title":"ruby","output":"hello","time":0.065,"unit":"second"}},
 {"status":"success","report":{"title":"lua","output":"hello","time":0.001,"unit":"second"}},
 {"status":"success","report":{"title":"bash","output":"hello","time":0.003,"unit":"second"}},
 {"status":"success","report":{"title":"fish","output":"hello","time":0.086,"unit":"second"}},
 {"status":"success","report":{"title":"zsh","output":"hello","time":0.005,"unit":"second"}},
 {"status":"success","report":{"title":"racket","output":"hello","time":0.361,"unit":"second"}},
 {"status":"success","report":{"title":"racket/base","output":"hello","time":0.061,"unit":"second"}},
 {"status":"success","report":{"title":"gauche scheme","output":"hello","time":0.01,"unit":"second"}},
 {"status":"success","report":{"title":"guile scheme","output":"hello","time":0.012,"unit":"second"}},
 {"status":"success","report":{"title":"chez scheme","output":"hello","time":0.157,"unit":"second"}},
 {"status":"success","report":{"title":"sbcl","output":"hello","time":0.043,"unit":"second"}},
 {"status":"success","report":{"title":"clisp","output":"hello","time":0.012,"unit":"second"}},
 {"status":"success","report":{"title":"emacs lisp","output":"hello","time":0.053,"unit":"second"}},
 {"status":"success","report":{"title":"picolisp (kernel only)","output":"hello","time":0.001,"unit":"second"}},
 {"status":"success","report":{"title":"picolisp (with pil)","output":"hello","time":0.004,"unit":"second"}},
 {"status":"success","report":{"title":"clojure","output":"hello","time":0.846,"unit":"second"}},
 {"status":"success","report":{"title":"io","output":"hello","time":0.077,"unit":"second"}},
 {"status":"success","report":{"title":"node","output":"hello","time":0.057,"unit":"second"}},
 {"status":"success","report":{"title":"gjs","output":"hello","time":0.036,"unit":"second"}},
 {"status":"success","report":{"title":"php","output":"hello","time":0.009,"unit":"second"}},
 {"status":"success","report":{"title":"go (go run)","output":"hello","time":0.164,"unit":"second"}},
 {"status":"success","report":{"title":"go","output":"hello","time":0.001,"unit":"second"}},
 {"status":"success","report":{"title":"gcc","output":"hello","time":0.001,"unit":"second"}},
 {"status":"success","report":{"title":"haskell","output":"hello","time":0.001,"unit":"second"}},
 {"status":"success","report":{"title":"vala","output":"hello","time":0.001,"unit":"second"}},
 {"status":"success","report":{"title":"rust","output":"hello","time":0.001,"unit":"second"}},
 {"status":"success","report":{"title":"nim","output":"hello","time":0.001,"unit":"second"}},
 {"status":"success","report":{"title":"C# (mono)","output":"hello","time":0.02,"unit":"second"}},
 {"status":"success","report":{"title":"java","output":"hello","time":0.046,"unit":"second"}}]
